{
  "billing_email": "thomas.neidhart@eclipse-foundation.org",
  "blog": null,
  "company": null,
  "default_branch_name": "main",
  "default_repository_permission": "read",
  "dependabot_alerts_enabled_for_new_repositories": true,
  "dependabot_security_updates_enabled_for_new_repositories": true,
  "dependency_graph_enabled_for_new_repositories": true,
  "description": null,
  "email": null,
  "has_organization_projects": true,
  "has_repository_projects": true,
  "location": null,
  "members_can_change_repo_visibility": false,
  "members_can_create_pages": true,
  "members_can_create_private_repositories": false,
  "members_can_create_public_pages": true,
  "members_can_create_public_repositories": true,
  "members_can_create_teams": true,
  "members_can_delete_issues": false,
  "members_can_delete_repositories": true,
  "members_can_fork_private_repositories": true,
  "name": null,
  "members_can_change_project_visibility": false,
  "organization_projects_enabled": true,
  "packages_containers_internal": false,
  "packages_containers_public": false,
  "plan": { "name": "free"},
  "readers_can_create_discussions": false,
  "team_discussions_allowed": true,
  "twitter_username": null,
  "two_factor_requirement": false,
  "web_commit_signoff_required": false
}
