{
  "id": "BPR_kwDOI9xAhM4CC77t",
  "pattern": "main",
  "allowsDeletions": false,
  "allowsForcePushes": false,
  "blocksCreations": false,
  "dismissesStaleReviews": false,
  "isAdminEnforced": false,
  "lockAllowsFetchAndMerge": false,
  "lockBranch": false,
  "requireLastPushApproval": false,
  "requiredApprovingReviewCount": 2,
  "requiresApprovingReviews": true,
  "requiresCodeOwnerReviews": false,
  "requiresCommitSignatures": false,
  "requiresConversationResolution": false,
  "requiresLinearHistory": false,
  "requiresStatusChecks": true,
  "requiresStrictStatusChecks": false,
  "restrictsPushes": false,
  "pushRestrictions": ["/netomi"],
  "bypassForcePushAllowances": ["/netomi"],
  "bypassPullRequestAllowances": ["/netomi"],
  "restrictsReviewDismissals": false,
  "reviewDismissalAllowances": ["/netomi"],
  "requiredStatusChecks":[{"app":null,"context":"Run CI"}]
}
